7,5,mar,fri,86.2,,94.3,5.1,8.2,51,6.7,0,0
7,4,oct,tue,90.6,35.4,669.1,6.7,18,33,0.9,0,0
7,4,oct,sat,90.6,43.7,686.9,6.7,14.6,33,1.3,0,0
8,6,mar,fri,91.7,33.3,,9,8.3,97,4,0.2,0
8,6,mar,sun,89.3,51.3,102.2,9.6,11.4,99,1.8,0,0
8,6,aug,sun,92.3,85.3,488,14.7,22.2,29,5.4,0,0
8,6,aug,mon,92.3,88.9,495.6,8.5,24.1,27,3.1,0,0
